{
    "second_name": "WON HO",
    "type": "individual",
    "id": "un-sc-sanctions.6908555",
    "function": "DPRK Ministry of State Security Official",
    "first_name": "RI",
    "listed_at": "2016-11-30",
    "source": "un-sc-sanctions",
    "program": "DPRK (KPi.033)",
    "nationalities": [{
            "country_code": "KP",
            "country": "Democratic People's Republic of Korea"
        }],
    "name": "RI WON HO",
    "identifiers": [{
            "number": "381310014",
            "type": "passport"
        }],
    "timestamp": "2018-02-07T12:34:04.850250",
    "summary": "Ri Won Ho is a DPRK Ministry of State Security Official stationed in Syria supporting KOMID.",
    "birth_dates": [{
            "quality": "strong",
            "date": "1964-07-17"
        }]
}